<?xml version="1.0" encoding="UTF-8" standalone="no" ?>
<gpx xmlns="http://www.topografix.com/GPX/1/1" xmlns:gpxx="http://www.garmin.com/xmlschemas/GpxExtensions/v3" xmlns:gpxtpx="http://www.garmin.com/xmlschemas/TrackPointExtension/v1" creator="labs.coruscantconsulting.co.uk" version="1.1" xmlns:xsi="http://www.w3.org/2001/XMLSchema-instance" xsi:schemaLocation="http://www.topografix.com/GPX/1/1 http://www.topografix.com/GPX/1/1/gpx.xsd http://www.garmin.com/xmlschemas/GpxExtensions/v3 http://www.garmin.com/xmlschemas/GpxExtensionsv3.xsd http://www.garmin.com/xmlschemas/TrackPointExtension/v1 http://www.garmin.com/xmlschemas/TrackPointExtensionv1.xsd">
  <metadata>
    <link href="http://www.coruscantconsulting.co.uk">
      <text>Coruscant Consulting Ltd. Labs</text>
    </link>
    <!--desc>Map data copyright 2015 Google</desc-->
    <!--copyright author="Google Inc">
    	<year>2015</year>
    	<license>https://developers.google.com/maps/terms</license>
    </copyright-->
    <!--url>https://www.google.co.uk/maps/dir/41.8559582,-87.9841089/Oakbrook+Terrace,+IL,+USA/@41.8518066,-87.978058,16z/am=t/data=!3m1!4b1!4m8!4m7!1m0!1m5!1m1!1s0x880e4c521606eb4f:0x2a5bba345adf0e10!2m2!1d-87.9645077!2d41.8500302?hl=en&hl=en</url-->
    <time>2016-05-17T03:34:55Z</time>
  </metadata>
  <wpt lat="41.8559582" lon="-87.9841089">
    <name>18W260 Standish Ln</name>
    <desc>18W260 Standish Ln, Villa Park, IL 60181, USA</desc>
  </wpt>
  <wpt lat="41.8561703" lon="-87.9837116">
    <name>WP001</name>
  </wpt>
  <wpt lat="41.8560223" lon="-87.9826293">
    <name>WP002</name>
  </wpt>
  <wpt lat="41.856844" lon="-87.981795">
    <name>WP003</name>
  </wpt>
  <wpt lat="41.856991" lon="-87.972838">
    <name>WP004</name>
  </wpt>
  <wpt lat="41.851154" lon="-87.9726249">
    <name>WP005</name>
  </wpt>
  <wpt lat="41.8530243" lon="-87.9679586">
    <name>WP006</name>
  </wpt>
  <wpt lat="41.85123" lon="-87.9675939">
    <name>WP007</name>
  </wpt>
  <wpt lat="41.8500302" lon="-87.9645077">
    <name>Oakbrook Terrace</name>
    <desc>Oakbrook Terrace, IL, USA</desc>
  </wpt>
</gpx>